// Jest Snapshot v1, https://goo.gl/fbAQLP

exports[`HeaderMenu should render correctly 1`] = `
<header>
  <button
    onClick={[Function]}
    type="button"
  >
    <svg
      className="hamburger-menu"
      viewBox="0 0 48 48"
    >
      <path
        d="M0 0h48v48h-48z"
        fill="none"
      />
      <path
        d="M6 36h36v-4h-36v4zm0-10h36v-4h-36v4zm0-14v4h36v-4h-36z"
        fill="#000"
      />
    </svg>
  </button>
  <div
    className="cart-icon-container"
  >
    <div
      className="login-container"
      onClick={[Function]}
    >
      <span
        className="login-info"
      />
      <svg
        className="login-icon"
        viewBox="0 0 1000 1000"
      >
        <path
          d="M500,10C231.5,10,10,231.5,10,500s221.5,490,490,490s490-221.5,490-490S768.5,10,500,10z M795.3,835.6c0-134.2-100.7-248.4-221.5-281.9c73.8-26.8,120.8-100.7,120.8-181.2c0-107.4-87.3-194.7-194.7-194.7s-194.7,87.3-194.7,194.7c0,80.5,53.7,154.4,120.8,181.2c-127.5,33.6-221.5,147.7-221.5,281.9C110.7,755.1,50.3,634.2,50.3,500C50.3,251.6,251.6,50.3,500,50.3c248.4,0,449.7,201.4,449.7,449.7C949.7,634.2,889.3,755.1,795.3,835.6z"
        />
      </svg>
    </div>
    <NavLink
      activeClassName="active"
      ariaCurrent="true"
      to="/cart"
    >
      <span
        className="cart-counter"
      >
        5
      </span>
      <svg
        className="cart-icon"
        viewBox="0 0 260.293 260.293"
      >
        <path
          d="M258.727,57.459c-1.42-1.837-3.612-2.913-5.934-2.913H62.004l-8.333-32.055c-0.859-3.306-3.843-5.613-7.259-5.613H7.5
 c-4.142,0-7.5,3.358-7.5,7.5c0,4.142,3.358,7.5,7.5,7.5h33.112l8.333,32.055c0,0.001,0,0.001,0.001,0.002l29.381,112.969
 c0.859,3.305,3.843,5.612,7.258,5.612h137.822c3.415,0,6.399-2.307,7.258-5.612l29.385-112.971
 C260.636,61.687,260.147,59.295,258.727,57.459z M117.877,167.517H91.385l-5.892-22.652h32.384V167.517z M117.877,129.864H81.592
 l-5.895-22.667h42.18V129.864z M117.877,92.197H71.795l-5.891-22.651h51.973V92.197z M176.119,167.517h-43.242v-22.652h43.242
 V167.517z M176.119,129.864h-43.242v-22.667h43.242V129.864z M176.119,92.197h-43.242V69.546h43.242V92.197z M217.609,167.517
 h-26.49v-22.652h32.382L217.609,167.517z M227.403,129.864h-36.284v-22.667h42.18L227.403,129.864z M237.201,92.197h-46.081V69.546
 h51.974L237.201,92.197z"
        />
        <path
          d="M105.482,188.62c-15.106,0-27.396,12.29-27.396,27.395c0,15.108,12.29,27.4,27.396,27.4
 c15.105,0,27.395-12.292,27.395-27.4C132.877,200.91,120.588,188.62,105.482,188.62z M105.482,228.415
 c-6.835,0-12.396-5.563-12.396-12.4c0-6.835,5.561-12.395,12.396-12.395c6.834,0,12.395,5.561,12.395,12.395
 C117.877,222.853,112.317,228.415,105.482,228.415z"
        />
        <path
          d="M203.512,188.62c-15.104,0-27.392,12.29-27.392,27.395c0,15.108,12.288,27.4,27.392,27.4
 c15.107,0,27.396-12.292,27.396-27.4C230.908,200.91,218.618,188.62,203.512,188.62z M203.512,228.415
 c-6.833,0-12.392-5.563-12.392-12.4c0-6.835,5.559-12.395,12.392-12.395c6.836,0,12.396,5.561,12.396,12.395
 C215.908,222.853,210.347,228.415,203.512,228.415z"
        />
      </svg>
    </NavLink>
  </div>
</header>
`;
